info face="Lucida Handwriting Italic" size=60 bold=0 italic=0 charset="" unicode=0 stretchH=100 smooth=1 aa=1 padding=0,0,0,0 spacing=0,0
common lineHeight=84 base=62 scaleW=512 scaleH=512 pages=1 packed=0
page id=0 file="60fnt.png"
chars count=95
char id=32   x=0     y=0     width=0     height=0     xoffset=0     yoffset=62    xadvance=20     page=0  chnl=0 
char id=106   x=0     y=0     width=59     height=66     xoffset=-10     yoffset=17    xadvance=17     page=0  chnl=0 
char id=102   x=59     y=0     width=53     height=65     xoffset=4     yoffset=10    xadvance=22     page=0  chnl=0 
char id=93   x=112     y=0     width=27     height=63     xoffset=6     yoffset=10    xadvance=33     page=0  chnl=0 
char id=91   x=139     y=0     width=31     height=63     xoffset=13     yoffset=10    xadvance=33     page=0  chnl=0 
char id=92   x=170     y=0     width=22     height=62     xoffset=8     yoffset=10    xadvance=30     page=0  chnl=0 
char id=47   x=192     y=0     width=48     height=62     xoffset=4     yoffset=10    xadvance=27     page=0  chnl=0 
char id=125   x=240     y=0     width=34     height=62     xoffset=1     yoffset=10    xadvance=26     page=0  chnl=0 
char id=123   x=274     y=0     width=38     height=62     xoffset=13     yoffset=10    xadvance=34     page=0  chnl=0 
char id=41   x=312     y=0     width=35     height=62     xoffset=3     yoffset=10    xadvance=32     page=0  chnl=0 
char id=40   x=347     y=0     width=37     height=61     xoffset=13     yoffset=11    xadvance=39     page=0  chnl=0 
char id=112   x=384     y=0     width=39     height=60     xoffset=4     yoffset=23    xadvance=37     page=0  chnl=0 
char id=74   x=423     y=0     width=63     height=59     xoffset=-7     yoffset=16    xadvance=32     page=0  chnl=0 
char id=36   x=0     y=66     width=34     height=58     xoffset=8     yoffset=14    xadvance=40     page=0  chnl=0 
char id=81   x=34     y=66     width=49     height=58     xoffset=7     yoffset=17    xadvance=52     page=0  chnl=0 
char id=124   x=83     y=66     width=17     height=57     xoffset=6     yoffset=15    xadvance=18     page=0  chnl=0 
char id=103   x=100     y=66     width=69     height=56     xoffset=7     yoffset=27    xadvance=43     page=0  chnl=0 
char id=113   x=169     y=66     width=40     height=54     xoffset=7     yoffset=29    xadvance=38     page=0  chnl=0 
char id=107   x=209     y=66     width=62     height=54     xoffset=8     yoffset=9    xadvance=39     page=0  chnl=0 
char id=77   x=271     y=66     width=51     height=54     xoffset=7     yoffset=13    xadvance=56     page=0  chnl=0 
char id=72   x=322     y=66     width=50     height=54     xoffset=5     yoffset=13    xadvance=52     page=0  chnl=0 
char id=71   x=372     y=66     width=43     height=54     xoffset=7     yoffset=17    xadvance=43     page=0  chnl=0 
char id=70   x=415     y=66     width=48     height=54     xoffset=8     yoffset=18    xadvance=37     page=0  chnl=0 
char id=38   x=0     y=124     width=54     height=53     xoffset=6     yoffset=17    xadvance=52     page=0  chnl=0 
char id=64   x=54     y=124     width=55     height=53     xoffset=7     yoffset=15    xadvance=56     page=0  chnl=0 
char id=122   x=109     y=124     width=61     height=53     xoffset=9     yoffset=30    xadvance=37     page=0  chnl=0 
char id=37   x=170     y=124     width=44     height=52     xoffset=9     yoffset=17    xadvance=50     page=0  chnl=0 
char id=108   x=214     y=124     width=50     height=52     xoffset=8     yoffset=11    xadvance=24     page=0  chnl=0 
char id=104   x=264     y=124     width=71     height=52     xoffset=6     yoffset=11    xadvance=45     page=0  chnl=0 
char id=100   x=335     y=124     width=73     height=52     xoffset=7     yoffset=11    xadvance=47     page=0  chnl=0 
char id=98   x=408     y=124     width=65     height=52     xoffset=7     yoffset=11    xadvance=39     page=0  chnl=0 
char id=90   x=0     y=177     width=42     height=52     xoffset=4     yoffset=15    xadvance=38     page=0  chnl=0 
char id=86   x=42     y=177     width=48     height=51     xoffset=5     yoffset=13    xadvance=40     page=0  chnl=0 
char id=84   x=90     y=177     width=50     height=51     xoffset=8     yoffset=13    xadvance=40     page=0  chnl=0 
char id=78   x=140     y=177     width=44     height=51     xoffset=8     yoffset=13    xadvance=49     page=0  chnl=0 
char id=76   x=184     y=177     width=32     height=51     xoffset=9     yoffset=13    xadvance=37     page=0  chnl=0 
char id=121   x=216     y=177     width=49     height=50     xoffset=-1     yoffset=30    xadvance=35     page=0  chnl=0 
char id=87   x=265     y=177     width=57     height=50     xoffset=6     yoffset=14    xadvance=57     page=0  chnl=0 
char id=82   x=322     y=177     width=47     height=50     xoffset=5     yoffset=17    xadvance=48     page=0  chnl=0 
char id=80   x=369     y=177     width=45     height=50     xoffset=6     yoffset=17    xadvance=41     page=0  chnl=0 
char id=75   x=414     y=177     width=49     height=50     xoffset=6     yoffset=17    xadvance=44     page=0  chnl=0 
char id=89   x=463     y=177     width=47     height=49     xoffset=5     yoffset=15    xadvance=35     page=0  chnl=0 
char id=83   x=0     y=229     width=34     height=49     xoffset=4     yoffset=17    xadvance=34     page=0  chnl=0 
char id=73   x=34     y=229     width=36     height=49     xoffset=5     yoffset=16    xadvance=33     page=0  chnl=0 
char id=68   x=70     y=229     width=53     height=49     xoffset=5     yoffset=17    xadvance=52     page=0  chnl=0 
char id=66   x=123     y=229     width=42     height=49     xoffset=5     yoffset=17    xadvance=45     page=0  chnl=0 
char id=55   x=165     y=229     width=31     height=48     xoffset=13     yoffset=18    xadvance=40     page=0  chnl=0 
char id=52   x=196     y=229     width=38     height=48     xoffset=7     yoffset=16    xadvance=40     page=0  chnl=0 
char id=35   x=234     y=229     width=44     height=47     xoffset=5     yoffset=17    xadvance=40     page=0  chnl=0 
char id=48   x=278     y=229     width=39     height=47     xoffset=7     yoffset=17    xadvance=40     page=0  chnl=0 
char id=57   x=317     y=229     width=33     height=47     xoffset=10     yoffset=17    xadvance=40     page=0  chnl=0 
char id=56   x=350     y=229     width=34     height=47     xoffset=8     yoffset=17    xadvance=40     page=0  chnl=0 
char id=54   x=384     y=229     width=32     height=47     xoffset=9     yoffset=17    xadvance=40     page=0  chnl=0 
char id=51   x=416     y=229     width=31     height=47     xoffset=9     yoffset=17    xadvance=40     page=0  chnl=0 
char id=85   x=447     y=229     width=48     height=47     xoffset=7     yoffset=17    xadvance=51     page=0  chnl=0 
char id=79   x=0     y=278     width=49     height=47     xoffset=7     yoffset=17    xadvance=52     page=0  chnl=0 
char id=67   x=49     y=278     width=41     height=47     xoffset=7     yoffset=17    xadvance=42     page=0  chnl=0 
char id=63   x=90     y=278     width=29     height=46     xoffset=15     yoffset=17    xadvance=33     page=0  chnl=0 
char id=53   x=119     y=278     width=32     height=46     xoffset=10     yoffset=18    xadvance=40     page=0  chnl=0 
char id=50   x=151     y=278     width=33     height=46     xoffset=7     yoffset=17    xadvance=40     page=0  chnl=0 
char id=49   x=184     y=278     width=29     height=46     xoffset=9     yoffset=18    xadvance=40     page=0  chnl=0 
char id=116   x=213     y=278     width=55     height=46     xoffset=3     yoffset=17    xadvance=26     page=0  chnl=0 
char id=105   x=268     y=278     width=49     height=46     xoffset=10     yoffset=17    xadvance=27     page=0  chnl=0 
char id=88   x=317     y=278     width=45     height=46     xoffset=4     yoffset=18    xadvance=41     page=0  chnl=0 
char id=69   x=362     y=278     width=45     height=46     xoffset=5     yoffset=18    xadvance=37     page=0  chnl=0 
char id=65   x=407     y=278     width=44     height=46     xoffset=2     yoffset=18    xadvance=46     page=0  chnl=0 
char id=127   x=451     y=278     width=24     height=45     xoffset=4     yoffset=18    xadvance=30     page=0  chnl=0 
char id=59   x=475     y=278     width=17     height=45     xoffset=6     yoffset=27    xadvance=21     page=0  chnl=0 
char id=33   x=492     y=278     width=16     height=45     xoffset=14     yoffset=18    xadvance=23     page=0  chnl=0 
char id=115   x=0     y=325     width=51     height=40     xoffset=7     yoffset=28    xadvance=26     page=0  chnl=0 
char id=120   x=51     y=325     width=62     height=39     xoffset=9     yoffset=30    xadvance=39     page=0  chnl=0 
char id=58   x=113     y=325     width=16     height=36     xoffset=9     yoffset=27    xadvance=20     page=0  chnl=0 
char id=119   x=129     y=325     width=51     height=36     xoffset=7     yoffset=28    xadvance=50     page=0  chnl=0 
char id=118   x=180     y=325     width=40     height=36     xoffset=7     yoffset=28    xadvance=34     page=0  chnl=0 
char id=111   x=220     y=325     width=67     height=36     xoffset=7     yoffset=27    xadvance=40     page=0  chnl=0 
char id=43   x=287     y=325     width=34     height=35     xoffset=7     yoffset=26    xadvance=40     page=0  chnl=0 
char id=62   x=321     y=325     width=37     height=35     xoffset=6     yoffset=28    xadvance=40     page=0  chnl=0 
char id=60   x=358     y=325     width=38     height=35     xoffset=7     yoffset=28    xadvance=40     page=0  chnl=0 
char id=99   x=396     y=325     width=59     height=35     xoffset=8     yoffset=29    xadvance=34     page=0  chnl=0 
char id=117   x=0     y=365     width=69     height=34     xoffset=9     yoffset=29    xadvance=47     page=0  chnl=0 
char id=114   x=69     y=365     width=41     height=34     xoffset=9     yoffset=29    xadvance=32     page=0  chnl=0 
char id=110   x=110     y=365     width=70     height=34     xoffset=11     yoffset=29    xadvance=48     page=0  chnl=0 
char id=109   x=180     y=365     width=86     height=34     xoffset=11     yoffset=29    xadvance=64     page=0  chnl=0 
char id=101   x=266     y=365     width=60     height=34     xoffset=7     yoffset=29    xadvance=35     page=0  chnl=0 
char id=97   x=326     y=365     width=73     height=34     xoffset=7     yoffset=29    xadvance=47     page=0  chnl=0 
char id=94   x=399     y=365     width=36     height=33     xoffset=5     yoffset=19    xadvance=40     page=0  chnl=0 
char id=42   x=435     y=365     width=26     height=28     xoffset=12     yoffset=11    xadvance=29     page=0  chnl=0 
char id=61   x=461     y=365     width=36     height=23     xoffset=6     yoffset=33    xadvance=40     page=0  chnl=0 
char id=44   x=0     y=399     width=15     height=19     xoffset=6     yoffset=53    xadvance=21     page=0  chnl=0 
char id=39   x=15     y=399     width=11     height=18     xoffset=11     yoffset=10    xadvance=16     page=0  chnl=0 
char id=34   x=26     y=399     width=23     height=17     xoffset=12     yoffset=10    xadvance=24     page=0  chnl=0 
char id=126   x=49     y=399     width=33     height=13     xoffset=8     yoffset=38    xadvance=40     page=0  chnl=0 
char id=96   x=82     y=399     width=12     height=12     xoffset=26     yoffset=13    xadvance=40     page=0  chnl=0 
char id=95   x=94     y=399     width=27     height=9     xoffset=3     yoffset=61    xadvance=30     page=0  chnl=0 
char id=45   x=121     y=399     width=17     height=8     xoffset=14     yoffset=40    xadvance=29     page=0  chnl=0 
char id=46   x=138     y=399     width=8     height=8     xoffset=9     yoffset=55    xadvance=20     page=0  chnl=0 
